…
```
##    Min. 1st Qu.  Median    Mean 3rd Qu.    Max. 
##       1    1048    1786    2108    2622   29769
```



```r
new_csd
```

```
## # A tibble: 101,532 x 32
##    targdol    datead6    datelp6 slstyr slslyr sls2ago sls3ago slshist
##      <dbl>     <date>     <date>  <int>  <int>   <int>   <int>   <int>
##  1       0 1980-01-01 1980-01-01      0      0       0       0       0
##  2       0 1980-01-01 1980-01-01      0      0       0       0       0
##  3       0 1980-01-01 1980-01-01      0      0       0       0       0
##  4       0 1980-01-01 1980-01-01      0      0       0       0       0
##  5       0 1980-01-01 1980-01-01      0      0       0       0       0
##  6       0 1980-01-01 1980-01-01      0      0       0       0       0
##  7       0 1980-01-01 1980-01-01      0      0       0       0       0
##  8       0 1980-01-01 1980-01-01      0      0       0       0       0
##  9       0 1980-01-01 1980-01-01      0      0       0       0       0
## 10       0 1980-01-01 1980-01-01      0      0       0       0       0
## # ... with 101,522 more rows, and 24 more variables: ordtyr <int>,
## #   ordlyr <int>, ord2ago <int>, ord3ago <int>, ordhist <int>,
## #   falord <int>, sprord <int>, train <int>, oldOrds <dbl>,
## #   oldSales <int>, days <dbl>, recency <dbl>, factyr <fctr>,
## #   faclyr <fctr>, fac2ago <fctr>, fac3ago <fctr>, avgtyr <dbl>,
## #   avglyr <dbl>, avg2ago <dbl>, avg3ago <dbl>, avghist <dbl>,
## #   targ_prob <dbl>, recency_fac <fctr>, days_on <dbl>
```
…
```r
train_pur <- train %>% filter(targ_prob > 0)
test_pur <- test %>% filter(targ_prob > 0)
```


```r
train_pur
```

```
## # A tibble: 4,845 x 32
##      targdol    datead6    datelp6 slstyr slslyr sls2ago sls3ago slshist
##        <dbl>     <date>     <date>  <int>  <int>   <int>   <int>   <int>
##  1  45.00000 2011-05-01 2012-03-11     42      0       0       0      42
##  2  25.45000 2011-06-10 2011-11-15     31      0       0       0      31
##  3  93.75000 2009-10-17 2011-11-15    102    121       0       0     223
##  4 123.34998 1999-11-21 2009-11-15      0      0     203     268    1462
##  5 113.39996 2011-05-16 2012-02-25    114      0       0       0     114
##  6  15.95000 2004-07-02 2005-11-15      0      0       0       0     150
##  7 103.89996 2011-12-06 2012-03-01     46      0       0       0      46
##  8 362.83984 2005-02-05 2012-03-01     20     44       0       0     381
##  9  37.94998 2011-07-23 2012-03-01     97      0       0       0      97
## 10  27.89999 2007-11-03 2009-03-01      0      0       0       8      34
## # ... with 4,835 more rows, and 24 more variables: ordtyr <int>,
## #   ordlyr <int>, ord2ago <int>, ord3ago <int>, ordhist <int>,
## #   falord <int>, sprord <int>, train <int>, oldOrds <dbl>,
## #   oldSales <int>, days <dbl>, recency <dbl>, factyr <fctr>,
## #   faclyr <fctr>, fac2ago <fctr>, fac3ago <fctr>, avgtyr <dbl>,
## #   avglyr <dbl>, avg2ago <dbl>, avg3ago <dbl>, avghist <dbl>,
## #   targ_prob <dbl>, recency_fac <fctr>, days_on <dbl>
```
…
```
## [1] 2754.089
```


```r
train_pur
```

```
## # A tibble: 4,845 x 32
##      targdol    datead6    datelp6 slstyr slslyr sls2ago sls3ago slshist
##        <dbl>     <date>     <date>  <int>  <int>   <int>   <int>   <int>
##  1  45.00000 2011-05-01 2012-03-11     42      0       0       0      42
##  2  25.45000 2011-06-10 2011-11-15     31      0       0       0      31
##  3  93.75000 2009-10-17 2011-11-15    102    121       0       0     223
##  4 123.34998 1999-11-21 2009-11-15      0      0     203     268    1462
##  5 113.39996 2011-05-16 2012-02-25    114      0       0       0     114
##  6  15.95000 2004-07-02 2005-11-15      0      0       0       0     150
##  7 103.89996 2011-12-06 2012-03-01     46      0       0       0      46
##  8 362.83984 2005-02-05 2012-03-01     20     44       0       0     381
##  9  37.94998 2011-07-23 2012-03-01     97      0       0       0      97
## 10  27.89999 2007-11-03 2009-03-01      0      0       0       8      34
## # ... with 4,835 more rows, and 24 more variables: ordtyr <int>,
## #   ordlyr <int>, ord2ago <int>, ord3ago <int>, ordhist <int>,
## #   falord <int>, sprord <int>, train <int>, oldOrds <dbl>,
## #   oldSales <int>, days <dbl>, recency <dbl>, factyr <fctr>,
## #   faclyr <fctr>, fac2ago <fctr>, fac3ago <fctr>, avgtyr <dbl>,
## #   avglyr <dbl>, avg2ago <dbl>, avg3ago <dbl>, avghist <dbl>,
## #   targ_prob <dbl>, recency_fac <fctr>, days_on <dbl>
```
…
#calculate the financial outcome


```r
test$targ_exp <- predict(clean_reg,newdata=test) * predict(targ_prob_fit, newdata=test, type='response')
```


```r
test
```

```
## # A tibble: 51,114 x 33
##    targdol    datead6    datelp6 slstyr slslyr sls2ago sls3ago slshist
##      <dbl>     <date>     <date>  <int>  <int>   <int>   <int>   <int>
##  1    0.00 1980-01-01 1980-01-01      0      0       0       0       0
##  2    0.00 1980-01-01 1980-01-01      0      0       0       0       0
##  3    0.00 1980-01-01 1980-01-01      0      0       0       0       0
##  4    0.00 1980-01-01 1980-01-01      0      0       0       0       0
##  5    0.00 1980-01-01 1980-01-01      0      0       0       0       0
##  6    0.00 1980-01-01 1980-01-01      0      0       0       0       0
##  7    0.00 1980-01-01 1980-01-01      0      0       0       0       0
##  8    0.00 1980-01-01 1980-01-01      0      0       0       0       0
##  9   12.95 2011-01-15 2012-01-13      4      0       0       0       4
## 10    0.00 2003-11-18 2003-11-18      0      0       0       0      16
## # ... with 51,104 more rows, and 25 more variables: ordtyr <int>,
## #   ordlyr <int>, ord2ago <int>, ord3ago <int>, ordhist <int>,
## #   falord <int>, sprord <int>, train <int>, oldOrds <dbl>,
## #   oldSales <int>, days <dbl>, recency <dbl>, factyr <fctr>,
## #   faclyr <fctr>, fac2ago <fctr>, fac3ago <fctr>, avgtyr <dbl>,
## #   avglyr <dbl>, avg2ago <dbl>, avg3ago <dbl>, avghist <dbl>,
## #   targ_prob <dbl>, recency_fac <fctr>, days_on <dbl>, targ_exp <dbl>
```
…
